Vector parsers
…
The rectangular parsing functions almost always succeed; they'll only fail if the format is severely messed up. Instead, readr will generate a data frame of problems. The first few will be printed out, and you can access them all with problems():

problems(df1)
#> # A tibble: 1,000 x 5
#>      row col   expected       actual   file                               
#>    <int> <chr> <chr>          <chr>    <chr>                              
#>  1  1001 y     1/0/T/F/TRUE/… 2015-01… '/tmp/RtmpVpPyJ3/Rinst2a721c535118…
#>  2  1002 y     1/0/T/F/TRUE/… 2018-05… '/tmp/RtmpVpPyJ3/Rinst2a721c535118…
#>  3  1003 y     1/0/T/F/TRUE/… 2015-09… '/tmp/RtmpVpPyJ3/Rinst2a721c535118…
#>  4  1004 y     1/0/T/F/TRUE/… 2012-11… '/tmp/RtmpVpPyJ3/Rinst2a721c535118…
#>  5  1005 y     1/0/T/F/TRUE/… 2020-01… '/tmp/RtmpVpPyJ3/Rinst2a721c535118…
#>  6  1006 y     1/0/T/F/TRUE/… 2016-04… '/tmp/RtmpVpPyJ3/Rinst2a721c535118…
#>  7  1007 y     1/0/T/F/TRUE/… 2011-05… '/tmp/RtmpVpPyJ3/Rinst2a721c535118…
#>  8  1008 y     1/0/T/F/TRUE/… 2020-07… '/tmp/RtmpVpPyJ3/Rinst2a721c535118…
#>  9  1009 y     1/0/T/F/TRUE/… 2011-04… '/tmp/RtmpVpPyJ3/Rinst2a721c535118…
#> 10  1010 y     1/0/T/F/TRUE/… 2010-05… '/tmp/RtmpVpPyJ3/Rinst2a721c535118…
#> # ... with 990 more rows
…
